^C:\USERS\KITTY\VEKTORIA\APP\VEKTORIAAPP\VEKTORIAAPP.RC
/l"0x0409" /nologo /fo"X64\RELEASE\VEKTORIAAPP.RES"   C:\USERS\KITTY\VEKTORIA\APP\VEKTORIAAPP\VEKTORIAAPP.RC
^T:\STUDIUM\4SEMESTER\MARSGAME\MARSGODGAMES\APP\VEKTORIAAPP\VEKTORIAAPP.RC
/l"0x0409" /nologo /fo"X64\RELEASE\VEKTORIAAPP.RES"   T:\STUDIUM\4SEMESTER\MARSGAME\MARSGODGAMES\APP\VEKTORIAAPP\VEKTORIAAPP.RC
