^C:\USERS\KITTY\VEKTORIA\APP\VEKTORIAAPP\VEKTORIAAPP.RC
C:\USERS\KITTY\VEKTORIA\APP\VEKTORIAAPP\RESOURCE.H
C:\USERS\KITTY\VEKTORIA\APP\VEKTORIAAPP\RES\VEKTORIATEST.ICO
^T:\STUDIUM\4SEMESTER\MARSGAME\MARSGODGAMES\APP\VEKTORIAAPP\VEKTORIAAPP.RC
T:\STUDIUM\4SEMESTER\MARSGAME\MARSGODGAMES\APP\VEKTORIAAPP\RESOURCE.H
T:\STUDIUM\4SEMESTER\MARSGAME\MARSGODGAMES\APP\VEKTORIAAPP\RES\VEKTORIATEST.ICO
