^C:\USERS\KITTY\VEKTORIA\APP\VEKTORIAAPP\GAME.CPP
/c /ZI /JMC /nologo /W3 /WX- /diagnostics:classic /Od /Oy- /D _MBCS /D _MBCS /D _DEBUG /D _CRT_SECURE_NO_WARNINGS /Gm- /EHsc /MDd /GS /fp:precise /Zc:wchar_t /Zc:forScope /Zc:inline /Fo"DEBUG\\" /Fd"DEBUG\VC141.PDB" /Gd /TP /analyze- /FC C:\USERS\KITTY\VEKTORIA\APP\VEKTORIAAPP\GAME.CPP
^C:\USERS\KITTY\VEKTORIA\APP\VEKTORIAAPP\VEKTORIAAPP.CPP
/c /ZI /JMC /nologo /W3 /WX- /diagnostics:classic /Od /Oy- /D _MBCS /D _MBCS /D _DEBUG /D _CRT_SECURE_NO_WARNINGS /Gm- /EHsc /MDd /GS /fp:precise /Zc:wchar_t /Zc:forScope /Zc:inline /Fo"DEBUG\\" /Fd"DEBUG\VC141.PDB" /Gd /TP /analyze- /FC C:\USERS\KITTY\VEKTORIA\APP\VEKTORIAAPP\VEKTORIAAPP.CPP
